{
  "extends": [
    "tslint-clean-code",
    "tslint-consistent-codestyle",
    "angular-tslint-rules"
  ],
  "rulesDirectory": [
    "codelyzer"
  ],
  "rules": {
    "arrow-return-shorthand": true,
    "callable-types": true,
    "class-name": true,
    "comment-format": [
      true,
      "check-space"
    ],
    "curly": true,
    "deprecation": {
      "severity": "warn"
    },
    "eofline": true,
    "forin": true,
    "import-blacklist": [
      true,
      "rxjs/Rx"
    ],
    "import-spacing": true,
    "interface-over-type-literal": true,
    "label-position": true,
    "max-line-length": [
      true,
      180
    ],
    "member-access": false,
    "member-ordering": [
      true,
      {
        "order": [
          "static-field",
          "instance-field",
          "static-method",
          "instance-method"
        ]
      }
    ],
    "no-arg": true,
    "no-bitwise": true,
    "no-console": [
      true,
      "log",
      "debug",
      "info",
      "time",
      "timeEnd",
      "trace"
    ],
    "no-construct": true,
    "no-debugger": true,
    "no-duplicate-super": true,
    "no-empty": false,
    "no-empty-interface": true,
    "no-eval": true,
    "no-inferrable-types": [
      true,
      "ignore-params"
    ],
    "no-misused-new": true,
    "no-non-null-assertion": true,
    "no-shadowed-variable": true,
    "no-string-literal": false,
    "no-string-throw": true,
    "no-switch-case-fall-through": true,
    "no-trailing-whitespace": true,
    "no-unnecessary-initializer": true,
    "no-unused-expression": true,
    "no-use-before-declare": true,
    "no-var-keyword": true,
    "object-literal-sort-keys": false,
    "one-line": [
      true,
      "check-open-brace",
      "check-catch",
      "check-else",
      "check-whitespace"
    ],
    "prefer-const": true,
    "quotemark": [
      true,
      "single"
    ],
    "radix": true,
    "semicolon": false,
    "triple-equals": [
      true,
      "allow-null-check"
    ],
    "typedef": [
      true,
      "call-signature",
      "arrow-call-signature",
      "parameter",
      "arrow-parameter",
      "object-destructuring",
      "array-destructuring"
    ],
    "typedef-whitespace": [
      true,
      {
        "call-signature": "nospace",
        "index-signature": "nospace",
        "parameter": "nospace",
        "property-declaration": "nospace",
        "variable-declaration": "nospace"
      },
      {
        "call-signature": "onespace",
        "index-signature": "onespace",
        "parameter": "onespace",
        "property-declaration": "onespace",
        "variable-declaration": "onespace"
      }
    ],
    "unified-signatures": true,
    "variable-name": [
      true,
      "check-format",
      "ban-keywords"
    ],
    "whitespace": [
      true,
      "check-branch",
      "check-decl",
      "check-module",
      "check-operator",
      "check-separator",
      "check-type",
      "check-type-operator"
    ],
    "no-output-on-prefix": true,
    "use-input-property-decorator": true,
    "use-output-property-decorator": true,
    "use-host-property-decorator": true,
    "no-input-rename": true,
    "no-output-rename": true,
    "use-life-cycle-interface": true,
    "use-pipe-transform-interface": true,
    "component-class-suffix": true,
    "directive-class-suffix": true,
    "indent": [
      true,
      "spaces",
      2
    ],
    "directive-selector": [
      true,
      "attribute",
      "camelCase"
    ],
    "component-selector": [
      true,
      "element",
      "app",
      "kebab-case"
    ],
    "newspaper-order": false,
    "no-flag-args": false,
    "no-for-each-push": true,
    "no-map-without-usage": false,
    "no-complex-conditionals": true,
    "no-commented-out-code": true,
    "early-exit": [
      false,
      {
        "ignore-constructor": true
      }
    ],
    "no-namespace": [
      true,
      "allow-declarations"
    ],
    "naming-convention": [
      true,
      {
        "type": "default",
        "format": "camelCase",
        "leadingUnderscore": "forbid",
        "trailingUnderscore": "forbid"
      },
      {
        "type": "variable",
        "modifiers": [
          "global",
          "const"
        ],
        "format": [
          "camelCase",
          "UPPER_CASE"
        ]
      },
      {
        "type": "variable",
        "modifiers": [
          "export",
          "const"
        ],
        "format": "UPPER_CASE"
      },
      {
        "type": "functionVariable",
        "modifiers": [
          "export",
          "const"
        ],
        "format": "camelCase"
      },
      {
        "type": "parameter",
        "modifiers": "unused",
        "leadingUnderscore": "forbid"
      },
      {
        "type": "member",
        "modifiers": "private",
        "leadingUnderscore": "forbid"
      },
      {
        "type": "member",
        "modifiers": "protected",
        "leadingUnderscore": "forbid"
      },
      {
        "type": "method",
        "filter": "^toJSON$",
        "format": null
      },
      {
        "type": "property",
        "modifiers": [
          "public",
          "static",
          "const"
        ],
        "format": "UPPER_CASE"
      },
      {
        "type": "type",
        "format": "PascalCase"
      },
      {
        "type": "enumMember",
        "format": "PascalCase"
      }
    ],
    "no-as-type-assertion": true,
    "no-accessor-recursion": true,
    "no-collapsible-if": true,
    "no-return-undefined": true,
    "no-unnecessary-else": true,
    "no-unused": true,
    "no-var-before-return": true,
    "prefer-const-enum": true,
    "prefer-while": true,
    "no-implicit-dependencies": false,
    "newline-before-return": false,
    "no-angle-bracket-type-assertion": false,
    "prefer-function-over-method": false,
    "object-literal-shorthand": false,
    "ordered-imports": false,
    "prefer-output-readonly": false,
    "use-view-encapsulation": false,
    "newline-per-chained-call": false,
    "i18n": false,
    "angular-whitespace": [
      true,
      "check-pipe",
      "check-semicolon"
    ],
    "no-template-call-expression": false,
    "trackBy-function": false
  }
}
